1 2
1 3
1 4
1 5
1 6
1 38
1 74
1 82
1 96
1 97
1 98
1 99
1 100
2 1
2 3
2 4
2 5
2 6
2 7
2 97
2 98
2 99
2 100
3 1
3 2
3 4
3 5
3 6
3 7
3 8
3 98
3 99
3 100
4 1
4 2
4 3
4 5
4 6
4 7
4 8
4 9
4 91
4 99
4 100
5 1
5 2
5 3
5 4
5 6
5 7
5 8
5 9
5 10
5 100
6 1
6 2
6 3
6 4
6 5
6 7
6 8
6 9
6 10
6 11
6 77
7 2
7 3
7 4
7 5
7 6
7 8
7 9
7 10
7 11
7 12
7 85
8 3
8 4
8 5
8 6
8 7
8 9
8 10
8 11
8 12
8 13
9 4
9 5
9 6
9 7
9 8
9 10
9 11
9 12
9 13
9 14
10 5
10 6
10 7
10 8
10 9
10 11
10 12
10 13
10 14
10 15
11 6
11 7
11 8
11 9
11 10
11 12
11 13
11 14
11 15
11 16
12 7
12 8
12 9
12 10
12 11
12 13
12 14
12 15
12 16
12 17
13 8
13 9
13 10
13 11
13 12
13 14
13 15
13 16
13 17
13 18
13 82
14 9
14 10
14 11
14 12
14 13
14 15
14 16
14 17
14 18
14 19
14 69
15 10
15 11
15 12
15 13
15 14
15 16
15 17
15 18
15 19
15 20
15 59
16 11
16 12
16 13
16 14
16 15
16 17
16 18
16 19
16 20
16 21
17 12
17 13
17 14
17 15
17 16
17 18
17 19
17 20
17 21
17 22
18 13
18 14
18 15
18 16
18 17
18 19
18 20
18 21
18 22
18 23
19 14
19 15
19 16
19 17
19 18
19 20
19 21
19 22
19 23
19 24
19 72
20 15
20 16
20 17
20 18
20 19
20 21
20 22
20 23
20 24
20 25
20 63
21 16
21 17
21 18
21 19
21 20
21 22
21 23
21 24
21 25
21 26
22 17
22 18
22 19
22 20
22 21
22 23
22 24
22 25
22 26
22 27
23 18
23 19
23 20
23 21
23 22
23 24
23 25
23 26
23 27
23 28
24 19
24 20
24 21
24 22
24 23
24 25
24 26
24 27
24 28
24 29
24 31
25 20
25 21
25 22
25 23
25 24
25 26
25 27
25 28
25 29
25 30
25 95
26 21
26 22
26 23
26 24
26 25
26 27
26 28
26 29
26 30
26 31
27 22
27 23
27 24
27 25
27 26
27 28
27 29
27 30
27 31
27 32
28 23
28 24
28 25
28 26
28 27
28 29
28 30
28 31
28 32
28 33
29 24
29 25
29 26
29 27
29 28
29 30
29 31
29 32
29 33
29 34
30 25
30 26
30 27
30 28
30 29
30 31
30 32
30 33
30 34
30 35
30 74
31 24
31 26
31 27
31 28
31 29
31 30
31 32
31 33
31 34
31 35
31 36
31 48
32 27
32 28
32 29
32 30
32 31
32 33
32 34
32 35
32 36
32 37
33 28
33 29
33 30
33 31
33 32
33 34
33 35
33 36
33 37
33 38
34 29
34 30
34 31
34 32
34 33
34 35
34 36
34 37
34 38
34 39
35 30
35 31
35 32
35 33
35 34
35 36
35 37
35 38
35 39
35 40
36 31
36 32
36 33
36 34
36 35
36 37
36 38
36 39
36 40
36 41
36 84
37 32
37 33
37 34
37 35
37 36
37 38
37 39
37 40
37 41
37 42
38 1
38 33
38 34
38 35
38 36
38 37
38 39
38 40
38 41
38 42
38 43
39 34
39 35
39 36
39 37
39 38
39 40
39 41
39 42
39 43
39 44
39 100
40 35
40 36
40 37
40 38
40 39
40 41
40 42
40 43
40 44
40 45
41 36
41 37
41 38
41 39
41 40
41 42
41 43
41 44
41 45
41 46
42 37
42 38
42 39
42 40
42 41
42 43
42 44
42 45
42 46
42 47
43 38
43 39
43 40
43 41
43 42
43 44
43 45
43 46
43 47
43 48
44 39
44 40
44 41
44 42
44 43
44 45
44 46
44 47
44 48
44 49
44 90
45 40
45 41
45 42
45 43
45 44
45 46
45 47
45 48
45 49
45 50
46 41
46 42
46 43
46 44
46 45
46 47
46 48
46 49
46 50
46 51
46 53
47 42
47 43
47 44
47 45
47 46
47 48
47 49
47 50
47 51
47 52
48 31
48 43
48 44
48 45
48 46
48 47
48 49
48 50
48 51
48 52
48 53
49 44
49 45
49 46
49 47
49 48
49 50
49 51
49 52
49 53
49 54
49 72
50 45
50 46
50 47
50 48
50 49
50 51
50 52
50 53
50 54
50 55
51 46
51 47
51 48
51 49
51 50
51 52
51 53
51 54
51 55
51 56
52 47
52 48
52 49
52 50
52 51
52 53
52 54
52 55
52 56
52 57
53 46
53 48
53 49
53 50
53 51
53 52
53 54
53 55
53 56
53 57
53 58
54 49
54 50
54 51
54 52
54 53
54 55
54 56
54 57
54 58
54 59
55 50
55 51
55 52
55 53
55 54
55 56
55 57
55 58
55 59
55 60
56 51
56 52
56 53
56 54
56 55
56 57
56 58
56 59
56 60
56 61
56 96
57 52
57 53
57 54
57 55
57 56
57 58
57 59
57 60
57 61
57 62
58 53
58 54
58 55
58 56
58 57
58 59
58 60
58 61
58 62
58 63
59 15
59 54
59 55
59 56
59 57
59 58
59 60
59 61
59 62
59 63
59 64
60 55
60 56
60 57
60 58
60 59
60 61
60 62
60 63
60 64
60 65
61 56
61 57
61 58
61 59
61 60
61 62
61 63
61 64
61 65
61 66
62 57
62 58
62 59
62 60
62 61
62 63
62 64
62 65
62 66
62 67
63 20
63 58
63 59
63 60
63 61
63 62
63 64
63 65
63 66
63 67
63 68
64 59
64 60
64 61
64 62
64 63
64 65
64 66
64 67
64 68
64 69
65 60
65 61
65 62
65 63
65 64
65 66
65 67
65 68
65 69
65 70
66 61
66 62
66 63
66 64
66 65
66 67
66 68
66 69
66 70
66 71
67 62
67 63
67 64
67 65
67 66
67 68
67 69
67 70
67 71
67 72
67 86
68 63
68 64
68 65
68 66
68 67
68 69
68 70
68 71
68 72
68 73
69 14
69 64
69 65
69 66
69 67
69 68
69 70
69 71
69 72
69 73
69 74
70 65
70 66
70 67
70 68
70 69
70 71
70 72
70 73
70 74
70 75
71 66
71 67
71 68
71 69
71 70
71 72
71 73
71 74
71 75
71 76
72 19
72 49
72 67
72 68
72 69
72 70
72 71
72 73
72 74
72 75
72 76
72 77
73 68
73 69
73 70
73 71
73 72
73 74
73 75
73 76
73 77
73 78
74 1
74 30
74 69
74 70
74 71
74 72
74 73
74 75
74 76
74 77
74 78
74 79
75 70
75 71
75 72
75 73
75 74
75 76
75 77
75 78
75 79
75 80
76 71
76 72
76 73
76 74
76 75
76 77
76 78
76 79
76 80
76 81
77 6
77 72
77 73
77 74
77 75
77 76
77 78
77 79
77 80
77 81
77 82
78 73
78 74
78 75
78 76
78 77
78 79
78 80
78 81
78 82
78 83
79 74
79 75
79 76
79 77
79 78
79 80
79 81
79 82
79 83
79 84
80 75
80 76
80 77
80 78
80 79
80 81
80 82
80 83
80 84
80 85
81 76
81 77
81 78
81 79
81 80
81 82
81 83
81 84
81 85
81 86
82 1
82 13
82 77
82 78
82 79
82 80
82 81
82 83
82 84
82 85
82 86
82 87
83 78
83 79
83 80
83 81
83 82
83 84
83 85
83 86
83 87
83 88
84 36
84 79
84 80
84 81
84 82
84 83
84 85
84 86
84 87
84 88
84 89
85 7
85 80
85 81
85 82
85 83
85 84
85 86
85 87
85 88
85 89
85 90
86 67
86 81
86 82
86 83
86 84
86 85
86 87
86 88
86 89
86 90
86 91
87 82
87 83
87 84
87 85
87 86
87 88
87 89
87 90
87 91
87 92
88 83
88 84
88 85
88 86
88 87
88 89
88 90
88 91
88 92
88 93
89 84
89 85
89 86
89 87
89 88
89 90
89 91
89 92
89 93
89 94
90 44
90 85
90 86
90 87
90 88
90 89
90 91
90 92
90 93
90 94
90 95
91 4
91 86
91 87
91 88
91 89
91 90
91 92
91 93
91 94
91 95
91 96
92 87
92 88
92 89
92 90
92 91
92 93
92 94
92 95
92 96
92 97
93 88
93 89
93 90
93 91
93 92
93 94
93 95
93 96
93 97
93 98
94 89
94 90
94 91
94 92
94 93
94 95
94 96
94 97
94 98
94 99
95 25
95 90
95 91
95 92
95 93
95 94
95 96
95 97
95 98
95 99
95 100
96 1
96 56
96 91
96 92
96 93
96 94
96 95
96 97
96 98
96 99
96 100
97 1
97 2
97 92
97 93
97 94
97 95
97 96
97 98
97 99
97 100
98 1
98 2
98 3
98 93
98 94
98 95
98 96
98 97
98 99
98 100
99 1
99 2
99 3
99 4
99 94
99 95
99 96
99 97
99 98
99 100
100 1
100 2
100 3
100 4
100 5
100 39
100 95
100 96
100 97
100 98
100 99
